%YAML 1.1
%TAG !u! tag:unity3d.com,2011:
--- !u!1001 &4285727434367618849
PrefabInstance:
  m_ObjectHideFlags: 0
  serializedVersion: 2
  m_Modification:
    m_TransformParent: {fileID: 0}
    m_Modifications:
    - target: {fileID: -8856561828531859408, guid: e5d70c5fb54da7343b612f5176629b33, type: 3}
      propertyPath: m_Materials.Array.data[0]
      value: 
      objectReference: {fileID: 2100000, guid: 6076a83ad7a769e4c8dc6e099afce56a, type: 2}
    - target: {fileID: -8679921383154817045, guid: e5d70c5fb54da7343b612f5176629b33, type: 3}
      propertyPath: m_RootOrder
      value: 0
      objectReference: {fileID: 0}
    - target: {fileID: -8679921383154817045, guid: e5d70c5fb54da7343b612f5176629b33, type: 3}
      propertyPath: m_LocalPosition.x
      value: -29.33
      objectReference: {fileID: 0}
    - target: {fileID: -8679921383154817045, guid: e5d70c5fb54da7343b612f5176629b33, type: 3}
      propertyPath: m_LocalPosition.y
      value: 1
      objectReference: {fileID: 0}
    - target: {fileID: -8679921383154817045, guid: e5d70c5fb54da7343b612f5176629b33, type: 3}
      propertyPath: m_LocalPosition.z
      value: 2.68
      objectReference: {fileID: 0}
    - target: {fileID: -8679921383154817045, guid: e5d70c5fb54da7343b612f5176629b33, type: 3}
      propertyPath: m_LocalRotation.w
      value: 1
      objectReference: {fileID: 0}
    - target: {fileID: -8679921383154817045, guid: e5d70c5fb54da7343b612f5176629b33, type: 3}
      propertyPath: m_LocalRotation.x
      value: 0
      objectReference: {fileID: 0}
    - target: {fileID: -8679921383154817045, guid: e5d70c5fb54da7343b612f5176629b33, type: 3}
      propertyPath: m_LocalRotation.y
      value: 0
      objectReference: {fileID: 0}
    - target: {fileID: -8679921383154817045, guid: e5d70c5fb54da7343b612f5176629b33, type: 3}
      propertyPath: m_LocalRotation.z
      value: 0
      objectReference: {fileID: 0}
    - target: {fileID: -8679921383154817045, guid: e5d70c5fb54da7343b612f5176629b33, type: 3}
      propertyPath: m_LocalEulerAnglesHint.x
      value: 0
      objectReference: {fileID: 0}
    - target: {fileID: -8679921383154817045, guid: e5d70c5fb54da7343b612f5176629b33, type: 3}
      propertyPath: m_LocalEulerAnglesHint.y
      value: 0
      objectReference: {fileID: 0}
    - target: {fileID: -8679921383154817045, guid: e5d70c5fb54da7343b612f5176629b33, type: 3}
      propertyPath: m_LocalEulerAnglesHint.z
      value: 0
      objectReference: {fileID: 0}
    - target: {fileID: -6468085518280132687, guid: e5d70c5fb54da7343b612f5176629b33, type: 3}
      propertyPath: m_Materials.Array.data[0]
      value: 
      objectReference: {fileID: 2100000, guid: 6076a83ad7a769e4c8dc6e099afce56a, type: 2}
    - target: {fileID: 919132149155446097, guid: e5d70c5fb54da7343b612f5176629b33, type: 3}
      propertyPath: m_Name
      value: Archway Variant
      objectReference: {fileID: 0}
    - target: {fileID: 1282219121056404672, guid: e5d70c5fb54da7343b612f5176629b33, type: 3}
      propertyPath: m_Materials.Array.data[0]
      value: 
      objectReference: {fileID: 2100000, guid: 65899830f470afc4283a0607b8a96204, type: 2}
    m_RemovedComponents: []
  m_SourcePrefab: {fileID: 100100000, guid: e5d70c5fb54da7343b612f5176629b33, type: 3}
